Covid19 Vaccinations 1-19-2021
…
Covid19 Vaccinations 1-19-2021

CodeByDom

1/19/2021

Total Vaccine Distribution Total for the World

To track the vaccination efforts, I scrapped vaccination data from the web using publicly available data sources.

Data from: Our World in Data, https://ourworldindata.org/.

Location and Date (YYYY-MM-DD) data was last updated:

# A tibble: 58 x 3
# Groups:   location [58]
   location   iso_code date      
   <chr>      <chr>    <chr>     
 1 Argentina  ARG      2021-01-15
 2 Austria    AUT      2021-01-19
 3 Bahrain    BHR      2021-01-18
 4 Belgium    BEL      2021-01-18
 5 Brazil     BRA      2021-01-19
 6 Bulgaria   BGR      2021-01-18
 7 Canada     CAN      2021-01-18
 8 Chile      CHL      2021-01-18
 9 China      CHN      2021-01-13
10 Costa Rica CRI      2021-01-15
# ... with 48 more rows
…
