Covid19 Vaccinations 1-26-2021
…
Covid19 Vaccinations 1-26-2021

CodeByDom

1/26/2021

Total Vaccine Distribution Total for the World

To track the vaccination efforts, I scrapped vaccination data from the web using publicly available data sources.

Data from: Our World in Data, https://ourworldindata.org/.

Location and Date (YYYY-MM-DD) data was last updated:

# A tibble: 64 x 3
# Groups:   location [64]
   location  iso_code date      
   <chr>     <chr>    <chr>     
 1 Argentina ARG      2021-01-26
 2 Austria   AUT      2021-01-26
 3 Bahrain   BHR      2021-01-20
 4 Belgium   BEL      2021-01-25
 5 Bermuda   BMU      2021-01-16
 6 Brazil    BRA      2021-01-26
 7 Bulgaria  BGR      2021-01-25
 8 Canada    CAN      2021-01-25
 9 Chile     CHL      2021-01-25
10 China     CHN      2021-01-20
# ... with 54 more rows
…
