Covid19 Vaccinations 12-29-2020
…
Covid19 Vaccinations 12-29-2020

CodeByDom

12/29/2020

Total Vaccine Distribution Total for the World

To track the vaccination efforts, I scrapped vaccination data from the web using publicly available data sources.

Data from: Our World in Data, https://ourworldindata.org/.

Location and Date (YYYY-MM-DD) data was last updated:

# A tibble: 25 x 2
# Groups:   location [25]
   location   date      
   <chr>      <chr>     
 1 Bahrain    2020-12-28
 2 Bulgaria   2020-12-29
 3 Canada     2020-12-28
 4 Chile      2020-12-27
 5 China      2020-12-19
 6 Costa Rica 2020-12-24
 7 Denmark    2020-12-28
 8 England    2020-12-20
 9 Estonia    2020-12-29
10 Germany    2020-12-28
# ... with 15 more rows
…
