Covid19 Vaccinations 2-23-2021
…
Covid19 Vaccinations 2-23-2021

CodeByDom

2/23/2021

Total Vaccine Distribution Total for the World

To track the vaccination efforts, I scrapped vaccination data from the web using publicly available data sources.

Data from: Our World in Data, https://ourworldindata.org/.

Location and Date (YYYY-MM-DD) data was last updated:

# A tibble: 104 x 3
# Groups:   location [104]
   location   iso_code date      
   <chr>      <chr>    <chr>     
 1 Albania    ALB      2021-02-19
 2 Algeria    DZA      2021-02-19
 3 Andorra    AND      2021-02-19
 4 Anguilla   AIA      2021-02-14
 5 Argentina  ARG      2021-02-22
 6 Australia  AUS      2021-02-22
 7 Austria    AUT      2021-02-22
 8 Azerbaijan AZE      2021-02-06
 9 Bahrain    BHR      2021-02-22
10 Bangladesh BGD      2021-02-22
# ... with 94 more rows
…
